<?xml version="1.0" standalone="no"?>
<!DOCTYPE svg PUBLIC "-//W3C//DTD SVG 20010904//EN"
 "http://www.w3.org/TR/2001/REC-SVG-20010904/DTD/svg10.dtd">
<svg version="1.0" xmlns="http://www.w3.org/2000/svg"
 width="800.000000pt" height="800.000000pt" viewBox="0 0 800.000000 800.000000"
 preserveAspectRatio="xMidYMid meet">

<g transform="translate(0.000000,800.000000) scale(0.100000,-0.100000)"
fill="#D2B722" stroke="none">
<path style="fill: #8f69f7;" d="M4620 6618 c-271 -207 -335 -243 -480 -277 -129 -30 -247 -69 -296
-96 -22 -13 -80 -67 -128 -120 -49 -52 -151 -148 -227 -212 -77 -64 -139 -120
-139 -124 0 -8 48 10 115 43 62 31 155 101 262 194 111 97 193 141 333 179
259 71 280 81 438 208 78 63 283 300 270 312 -2 2 -69 -46 -148 -107z">
    <animate id="animation1"
        attributeName="opacity"
        from="0" to="1" dur="2s"
        begin="0s;animation2.end" />
</path>
<path style="fill: #8f69f7;" d="M4777 6546 c-7 -74 -49 -156 -114 -226 -53 -58 -104 -95 -266 -194
-43 -27 -76 -50 -74 -53 3 -2 58 9 123 25 66 17 132 33 147 36 l29 7 -33 -46
c-52 -73 -158 -173 -239 -226 -117 -77 -235 -116 -430 -141 -20 -3 -14 -7 29
-22 74 -25 232 -18 349 17 52 15 82 20 82 13 0 -6 -9 -29 -21 -51 -65 -123
-246 -240 -480 -310 -69 -21 -131 -33 -274 -51 l-50 -6 80 -25 c44 -13 117
-29 162 -35 283 -39 516 126 615 434 28 87 34 97 99 162 80 80 115 145 131
242 10 60 17 76 59 124 64 75 86 122 100 210 12 74 6 170 -10 170 -5 0 -11
-24 -14 -54z">
    <animate id="animation1"
        attributeName="opacity"
        from="0" to="1" dur="2s"
        begin="0s;animation2.end" />
</path>
<path style="fill: #8f69f7;" d="M2736 5964 c-21 -7 -66 -32 -99 -55 -34 -23 -89 -55 -124 -71 -38
-18 -60 -34 -57 -42 3 -7 33 -31 68 -54 93 -61 121 -99 208 -282 136 -286 219
-444 256 -489 74 -90 274 -187 656 -317 454 -154 546 -213 706 -450 51 -75 94
-133 97 -130 3 3 -20 53 -51 111 -134 254 -232 364 -389 439 -50 24 -217 86
-369 136 -318 106 -402 148 -502 247 -110 111 -223 293 -285 460 -39 107 -74
174 -111 217 -32 36 -120 86 -152 86 -26 0 -22 12 15 47 45 43 111 74 172 80
71 7 187 -28 270 -83 36 -23 65 -40 65 -38 0 19 -38 69 -85 112 -90 82 -196
110 -289 76z">
    <animate id="animation1"
        attributeName="opacity"
        from="0" to="1" dur="1s"
        begin="0s;animation2.end" />
</path>
<path d="M4055 5200 c-152 -23 -310 -97 -450 -211 -36 -29 -64 -53 -62 -55 1
-1 56 24 121 56 218 107 369 143 531 129 134 -13 287 -79 620 -268 234 -134
391 -188 620 -215 86 -10 109 -16 107 -27 -2 -8 -53 -169 -112 -359 -60 -190
-163 -523 -230 -740 -294 -956 -480 -1522 -640 -1948 -37 -98 -48 -117 -79
-137 -78 -52 -224 -69 -336 -40 -79 21 -154 60 -283 148 -134 91 -193 110
-342 109 -123 -1 -231 -25 -321 -73 -33 -18 -57 -34 -55 -36 2 -3 51 7 108 22
56 15 141 29 188 32 149 10 232 -20 390 -137 176 -131 326 -186 488 -178 76 3
100 9 155 36 75 37 134 98 171 176 72 153 381 1081 646 1941 103 334 143 464
246 790 31 99 61 196 66 215 6 19 14 40 19 46 8 9 79 7 79 -3 0 -2 -47 -154
-104 -336 -58 -183 -150 -480 -206 -662 -300 -976 -544 -1721 -680 -2076 -20
-54 -20 -54 0 -29 32 39 133 251 193 405 128 326 332 923 577 1690 67 209 159
493 204 630 l82 250 47 -1 c26 0 49 -3 53 -6 3 -4 -40 -139 -96 -300 -56 -161
-163 -473 -237 -693 -297 -882 -452 -1313 -612 -1709 -34 -82 -59 -151 -57
-153 6 -7 72 99 116 186 121 241 259 594 560 1426 15 44 55 157 88 250 33 94
114 321 180 505 l119 335 48 -2 c25 -1 49 -4 52 -6 2 -3 -56 -173 -130 -379
-75 -205 -190 -528 -257 -718 -203 -576 -417 -1135 -548 -1438 -82 -186 29
-25 138 202 89 184 126 270 250 579 89 225 143 366 425 1122 86 231 184 487
217 568 33 82 58 150 56 152 -2 2 -45 7 -95 11 -50 4 -96 10 -103 14 -7 5 -3
25 16 69 15 34 25 63 23 65 -2 2 -48 9 -103 14 -54 6 -101 13 -104 16 -3 3 4
30 15 61 12 30 20 55 19 55 0 0 -41 5 -90 10 -48 5 -91 12 -94 15 -3 3 2 30
12 61 10 31 16 57 14 58 -2 2 -57 9 -123 15 -304 30 -501 99 -818 289 -204
122 -365 177 -542 186 -49 3 -117 1 -150 -4z">
    <animate id="animation1"
        attributeName="opacity"
        from="0" to="1" dur="2.5s"
        begin="0s;animation2.end" />
</path>
<path d="M2970 4263 l0 -388 -580 3 -580 2 0 -130 0 -130 580 0 580 0 0 -1170
c0 -652 4 -1170 9 -1170 4 0 19 8 32 19 l24 19 -3 1181 -2 1181 -581 0 -580 0
3 68 3 67 578 3 c451 2 577 5 577 15 1 6 2 179 3 382 l2 370 68 3 67 3 0 -386
0 -385 510 0 510 0 98 28 97 27 -578 3 -577 2 0 385 0 385 -130 0 -130 0 0
-387z"/>
<path d="M3171 3503 l2 -178 13 145 c8 80 16 150 18 157 5 12 42 19 206 38
l105 12 -172 2 -173 1 1 -177z"/>
</g>
</svg>
